…
~~~
Warning: Factor `scientificName` contains implicit NA, consider using
`forcats::fct_explicit_na`
~~~
{: .error}



~~~
# A tibble: 27 x 2
   scientificName                n
   <fct>                     <int>
 1 Amphispiza bilineata        291
 2 Ammodramus savannarum         2
 3 Ammospermophilis harrisi      1
 4 Ammospermophilus harrisi    435
 5 Ammospermophilus harrisii     1
 6 Amphespiza bilineata          7
 7 Amphispiza bilineatus         1
 8 Amphispiza cilineata          1
 9 Amphispizo bilineata          1
10 Baiomys taylori              46
# … with 17 more rows
…
We can see the change by looking at the count again.


~~~
surveys%>%
  count(scientificName)
~~~
{: .language-r}



~~~
# A tibble: 22 x 2
   scientificName                      n
   <fct>                           <int>
 1 Amphispiza bilineata              291
 2 Ammodramus savannarum               2
 3 Ammospermophilus harrisi          437
 4 Amphespiza bilineata               10
 5 Baiomys taylori                    46
 6 Calamospiza melanocorys             1
 7 Callipepla squamata                 1
 8 Campylorhynchus brunneicapillus     1
 9 Chaetodipus baileyi                 2
10 Cnemidophorus tigris                1
# … with 12 more rows
…
